{
  "cars": [
    {
      "id": 1,
      "make": "Chevy",
      "model": "Cruz",
      "year": 2006,
      "color": "red",
      "price": 8000
    },
    {
      "id": 3,
      "make": "Porsche",
      "model": "911",
      "year": 2020,
      "color": "teal",
      "price": 99000
    },
    {
      "make": "Buick",
      "model": "Century",
      "year": 1976,
      "color": "navy",
      "price": 200,
      "id": 2
    },
    {
      "id": 4,
      "make": "Fiat",
      "model": "Sedan",
      "year": 1988,
      "color": "maroon",
      "price": 400
    },
    {
      "id": 5,
      "make": "Mazda",
      "model": "3",
      "year": 2014,
      "color": "orange",
      "price": 12000
    },
    {
      "id": 6,
      "make": "VW",
      "model": "Bug",
      "year": 1965,
      "color": "blue",
      "price": 300
    }
  ]
}